{
    "runtime" : 123,
    "status" : "Released",
    "backdrop_path" : "/6aUWe0GSl69wMTSWWexsorMIvwU.jpg",
    "overview" : "A live-action adaptation of Disney's version of the classic 'Beauty and the Beast' tale of a cursed prince and a beautiful young woman who helps him break the spell.",
    "title" : "Beauty and the Beast",
    "vote_count" : 1098,
    "tagline" : "Be our guest.",
    "belongs_to_collection" : null,
    "original_title" : "Beauty and the Beast",
    "original_language" : "en",
    "poster_path" : "/tnmL0g604PDRJwGJ5fsUSYKFo9.jpg",
    "production_countries" : [
                              {
                              "name" : "United States of America",
                              "iso_3166_1" : "US"
                              }
                              ],
    "revenue" : 779548842,
    "homepage" : "http://movies.disney.com/beauty-and-the-beast-2017",
    "video" : false,
    "imdb_id" : "tt2771200",
    "id" : 321612,
    "release_date" : "2017-03-15",
    "budget" : 160000000,
    "popularity" : 184.891157,
    "genres" : [
                {
                "id" : 14,
                "name" : "Fantasy"
                },
                {
                "id" : 10402,
                "name" : "Music"
                },
                {
                "id" : 10749,
                "name" : "Romance"
                }
                ],
    "production_companies" : [
                              {
                              "name" : "Walt Disney Pictures",
                              "id" : 2
                              },
                              {
                              "name" : "Mandeville Films",
                              "id" : 10227
                              }
                              ],
    "adult" : false,
    "spoken_languages" : [
                          {
                          "name" : "English",
                          "iso_639_1" : "en"
                          }
                          ],
    "vote_average" : 7.1
}
